Tidyverse
…
Tidyverse / Datos limpios

Cada variable va en una columna.

Cada observacin va en un rengln.

Cada unidad observacional va en una tabla.

Los datos de la Organizacin Mundial de la Salud http://www.who.int/tb/country/data/download/en/

Cada unidad observacional es una agregacin de casos por tipos de tuberculosis, por grupos de edad, sexo y por pas.

La ayuda de datos se obtiene ?who

## # A tibble: 76,046 x 8
##    country     iso2  iso3   year diagnostico genero edad  casos
##    <chr>       <chr> <chr> <int> <chr>       <chr>  <chr> <int>
##  1 Afghanistan AF    AFG    1997 sp          m      014       0
##  2 Afghanistan AF    AFG    1998 sp          m      014      30
##  3 Afghanistan AF    AFG    1999 sp          m      014       8
##  4 Afghanistan AF    AFG    2000 sp          m      014      52
##  5 Afghanistan AF    AFG    2001 sp          m      014     129
##  6 Afghanistan AF    AFG    2002 sp          m      014      90
##  7 Afghanistan AF    AFG    2003 sp          m      014     127
##  8 Afghanistan AF    AFG    2004 sp          m      014     139
##  9 Afghanistan AF    AFG    2005 sp          m      014     151
## 10 Afghanistan AF    AFG    2006 sp          m      014     193
## # ... with 76,036 more rows
…
library(rvest)
library(purrr)
library(readr)
library(dplyr)
library(lubridate)

df <- read_html("https://www.massshootingtracker.org/data") %>% 
  html_nodes("a[href^='https://docs.goo']") %>% 
  html_attr("href") %>% 
  map_df(read_csv) %>% 
  mutate(date=mdy(date)) -> shootings

shootings

## # A tibble: 2,421 x 23
##    date       name_semicolon_~ killed wounded city  state sources_semicol~
##    <date>     <chr>             <int>   <int> <chr> <chr> <chr>           
##  1 2013-01-01 Unknown               1       3 Hawt~ CA    http://losangel~
##  2 2013-01-01 Desmen Noble;Da~      1       4 Lora~ OH    http://www.wkyc~
##  3 2013-01-01 Julian Sims           0       4 McKe~ PA    http://pittsbur~
##  4 2013-01-01 Carlito Montoya       2       3 Sacr~ CA    http://sacramen~
##  5 2013-01-05 Sonny Archuleta       4       0 Auro~ CO    http://www.dail~
##  6 2013-01-07 Cedric;James Po~      4       0 Tulsa OK    http://usnews.n~
##  7 2013-01-07 Sandra Palmer         2       2 Gree~ NC    http://myfox8.c~
##  8 2013-01-07 Herbert Bland J       3       1 Dinw~ VA    http://www.wric~
##  9 2013-01-10 Donald Johnson        3       2 New ~ LA    http://www.nola~
## 10 2013-01-19 Nehemiah Griego       5       0 Albu~ NM    http://www.cbsn~
## # ... with 2,411 more rows, and 16 more variables: X8 <chr>, X9 <chr>,
## #   X10 <chr>, X11 <chr>, X12 <chr>, X13 <chr>, X14 <chr>, X15 <chr>,
## #   X16 <chr>, X17 <chr>, X18 <chr>, X19 <chr>, X20 <chr>, X21 <chr>,
## #   X22 <chr>, X23 <chr>
…
pas - punto

continente - color

ao - filtro (slider)

pib per capita - eje x

esperanza de vida - eje y

poblacin - tamao de la burbuja

gapminder

## # A tibble: 1,704 x 6
##    country     continent  year lifeExp      pop gdpPercap
##    <fct>       <fct>     <int>   <dbl>    <int>     <dbl>
##  1 Afghanistan Asia       1952    28.8  8425333       779
##  2 Afghanistan Asia       1957    30.3  9240934       821
##  3 Afghanistan Asia       1962    32.0 10267083       853
##  4 Afghanistan Asia       1967    34.0 11537966       836
##  5 Afghanistan Asia       1972    36.1 13079460       740
##  6 Afghanistan Asia       1977    38.4 14880372       786
##  7 Afghanistan Asia       1982    39.9 12881816       978
##  8 Afghanistan Asia       1987    40.8 13867957       852
##  9 Afghanistan Asia       1992    41.7 16317921       649
## 10 Afghanistan Asia       1997    41.8 22227415       635
## # ... with 1,694 more rows
…
